(kicad_symbol_lib (version 20211014) (generator kicad_symbol_editor)
  (symbol "74HC4050" (in_bom yes) (on_board yes)
    (property "Reference" "U" (id 0) (at -1.27 11.43 0)
      (effects (font (size 1.27 1.27)))
    )
    (property "Value" "74HC4050" (id 1) (at 0 -11.43 0)
      (effects (font (size 1.27 1.27)))
    )
    (property "Footprint" "" (id 2) (at -3.81 2.54 0)
      (effects (font (size 1.27 1.27)) hide)
    )
    (property "Datasheet" "" (id 3) (at -3.81 2.54 0)
      (effects (font (size 1.27 1.27)) hide)
    )
    (symbol "74HC4050_0_1"
      (rectangle (start -5.08 10.16) (end 5.08 -10.16)
        (stroke (width 0.1524) (type default) (color 0 0 0 0))
        (fill (type none))
      )
    )
    (symbol "74HC4050_1_1"
      (pin input line (at -7.62 8.89 0) (length 2.54)
        (name "Vcc" (effects (font (size 1.27 1.27))))
        (number "1" (effects (font (size 1.27 1.27))))
      )
      (pin output line (at 7.62 -6.35 180) (length 2.54)
        (name "4Y" (effects (font (size 1.27 1.27))))
        (number "10" (effects (font (size 1.27 1.27))))
      )
      (pin input line (at 7.62 -3.81 180) (length 2.54)
        (name "5A" (effects (font (size 1.27 1.27))))
        (number "11" (effects (font (size 1.27 1.27))))
      )
      (pin output line (at 7.62 -1.27 180) (length 2.54)
        (name "5Y" (effects (font (size 1.27 1.27))))
        (number "12" (effects (font (size 1.27 1.27))))
      )
      (pin input line (at 7.62 3.81 180) (length 2.54)
        (name "6A" (effects (font (size 1.27 1.27))))
        (number "13" (effects (font (size 1.27 1.27))))
      )
      (pin no_connect line (at 7.62 1.27 180) (length 2.54)
        (name "NC1" (effects (font (size 1.27 1.27))))
        (number "13" (effects (font (size 1.27 1.27))))
      )
      (pin output line (at 7.62 6.35 180) (length 2.54)
        (name "6Y" (effects (font (size 1.27 1.27))))
        (number "14" (effects (font (size 1.27 1.27))))
      )
      (pin no_connect line (at 7.62 8.89 180) (length 2.54)
        (name "NC2" (effects (font (size 1.27 1.27))))
        (number "16" (effects (font (size 1.27 1.27))))
      )
      (pin output line (at -7.62 6.35 0) (length 2.54)
        (name "1Y" (effects (font (size 1.27 1.27))))
        (number "2" (effects (font (size 1.27 1.27))))
      )
      (pin input line (at -7.62 3.81 0) (length 2.54)
        (name "1A" (effects (font (size 1.27 1.27))))
        (number "3" (effects (font (size 1.27 1.27))))
      )
      (pin output line (at -7.62 1.27 0) (length 2.54)
        (name "2Y" (effects (font (size 1.27 1.27))))
        (number "4" (effects (font (size 1.27 1.27))))
      )
      (pin input line (at -7.62 -1.27 0) (length 2.54)
        (name "2A" (effects (font (size 1.27 1.27))))
        (number "5" (effects (font (size 1.27 1.27))))
      )
      (pin output line (at -7.62 -3.81 0) (length 2.54)
        (name "3Y" (effects (font (size 1.27 1.27))))
        (number "6" (effects (font (size 1.27 1.27))))
      )
      (pin input line (at -7.62 -6.35 0) (length 2.54)
        (name "3A" (effects (font (size 1.27 1.27))))
        (number "7" (effects (font (size 1.27 1.27))))
      )
      (pin input line (at -7.62 -8.89 0) (length 2.54)
        (name "GND" (effects (font (size 1.27 1.27))))
        (number "8" (effects (font (size 1.27 1.27))))
      )
      (pin input line (at 7.62 -8.89 180) (length 2.54)
        (name "4A" (effects (font (size 1.27 1.27))))
        (number "9" (effects (font (size 1.27 1.27))))
      )
    )
  )
  (symbol "74LS164" (in_bom yes) (on_board yes)
    (property "Reference" "U" (id 0) (at -1.27 10.16 0)
      (effects (font (size 1.27 1.27)))
    )
    (property "Value" "74LS164" (id 1) (at 0 -10.16 0)
      (effects (font (size 1.27 1.27)))
    )
    (property "Footprint" "" (id 2) (at -3.81 -3.81 0)
      (effects (font (size 1.27 1.27)) hide)
    )
    (property "Datasheet" "" (id 3) (at -3.81 -3.81 0)
      (effects (font (size 1.27 1.27)) hide)
    )
    (symbol "74LS164_0_1"
      (rectangle (start -5.08 8.89) (end 5.08 -8.89)
        (stroke (width 0.1524) (type default) (color 0 0 0 0))
        (fill (type none))
      )
    )
    (symbol "74LS164_1_1"
      (pin input line (at -7.62 7.62 0) (length 2.54)
        (name "A" (effects (font (size 1.27 1.27))))
        (number "1" (effects (font (size 1.27 1.27))))
      )
      (pin output line (at 7.62 -2.54 180) (length 2.54)
        (name "QE" (effects (font (size 1.27 1.27))))
        (number "10" (effects (font (size 1.27 1.27))))
      )
      (pin output line (at 7.62 0 180) (length 2.54)
        (name "QF" (effects (font (size 1.27 1.27))))
        (number "11" (effects (font (size 1.27 1.27))))
      )
      (pin output line (at 7.62 2.54 180) (length 2.54)
        (name "QG" (effects (font (size 1.27 1.27))))
        (number "12" (effects (font (size 1.27 1.27))))
      )
      (pin output line (at 7.62 5.08 180) (length 2.54)
        (name "QH" (effects (font (size 1.27 1.27))))
        (number "13" (effects (font (size 1.27 1.27))))
      )
      (pin input line (at 7.62 7.62 180) (length 2.54)
        (name "Vcc" (effects (font (size 1.27 1.27))))
        (number "14" (effects (font (size 1.27 1.27))))
      )
      (pin input line (at -7.62 5.08 0) (length 2.54)
        (name "B" (effects (font (size 1.27 1.27))))
        (number "2" (effects (font (size 1.27 1.27))))
      )
      (pin output line (at -7.62 2.54 0) (length 2.54)
        (name "QA" (effects (font (size 1.27 1.27))))
        (number "3" (effects (font (size 1.27 1.27))))
      )
      (pin output line (at -7.62 0 0) (length 2.54)
        (name "QB" (effects (font (size 1.27 1.27))))
        (number "4" (effects (font (size 1.27 1.27))))
      )
      (pin output line (at -7.62 -2.54 0) (length 2.54)
        (name "QC" (effects (font (size 1.27 1.27))))
        (number "5" (effects (font (size 1.27 1.27))))
      )
      (pin output line (at -7.62 -5.08 0) (length 2.54)
        (name "QD" (effects (font (size 1.27 1.27))))
        (number "6" (effects (font (size 1.27 1.27))))
      )
      (pin input line (at -7.62 -7.62 0) (length 2.54)
        (name "GND" (effects (font (size 1.27 1.27))))
        (number "7" (effects (font (size 1.27 1.27))))
      )
      (pin input line (at 7.62 -7.62 180) (length 2.54)
        (name "CLK" (effects (font (size 1.27 1.27))))
        (number "8" (effects (font (size 1.27 1.27))))
      )
      (pin input line (at 7.62 -5.08 180) (length 2.54)
        (name "~{CLR}" (effects (font (size 1.27 1.27))))
        (number "9" (effects (font (size 1.27 1.27))))
      )
    )
  )
)
